{
  "questionID":"2038",
  "type":"1",
  "background":"assets\/background\/2038_background.png",
  "questionAudio":"audio\/2038_question.m4a",
  "choices":[
    {
      "answerID":"4728",
      "image":"assets\/answer\/2038_1.png",
      "left":"29px",
      "top":"439px",
      "correct":false,
      "selectionHighlight":"assets\/ui\/selection.png"
    },
    {
      "answerID":"4729",
      "image":"assets\/answer\/2038_2.png",
      "left":"285px",
      "top":"439px",
      "correct":false,
      "selectionHighlight":"assets\/ui\/selection.png"
    },
    {
      "answerID":"4730",
      "image":"assets\/answer\/2038_3.png",
      "left":"540px",
      "top":"439px",
      "correct":true,
      "selectionHighlight":"assets\/ui\/selection.png"
    },
    {
      "answerID":"4731",
      "image":"assets\/answer\/2038_4.png",
      "left":"795px",
      "top":"439px",
      "correct":false,
      "selectionHighlight":"assets\/ui\/selection.png"
    }
  ]
}