{
  "questionID":"887",
  "type":"1",
  "background":"assets\/background\/887_background.png",
  "questionAudio":"audio\/887_question.m4a",
  "audioIcon":"assets\/sound_btn.png",
  "choices":[
    {
      "answerID":"3348",
      "image":"assets\/answer\/887_1.png",
      "left":"29px",
      "top":"473px",
      "answerAudio":"audio\/887_1_answer.m4a",
      "correct":false,
      "selectionHighlight":"assets\/ui\/selection.png"
    },
    {
      "answerID":"3349",
      "image":"assets\/answer\/887_2.png",
      "left":"285px",
      "top":"473px",
      "answerAudio":"audio\/887_2_answer.m4a",
      "correct":true,
      "selectionHighlight":"assets\/ui\/selection.png"
    },
    {
      "answerID":"3350",
      "image":"assets\/answer\/887_3.png",
      "left":"540px",
      "top":"473px",
      "answerAudio":"audio\/887_3_answer.m4a",
      "correct":false,
      "selectionHighlight":"assets\/ui\/selection.png"
    },
    {
      "answerID":"3351",
      "image":"assets\/answer\/887_4.png",
      "left":"795px",
      "top":"473px",
      "answerAudio":"audio\/887_4_answer.m4a",
      "correct":false,
      "selectionHighlight":"assets\/ui\/selection.png"
    }
  ]
}